SAMMY ODEYEMI - FIFA 21 Data Wrangling
…
Contract Column

The Contract column contains information about the duration of contracts and loan periods for players.

Here are first 10 observations in the column

fifa21raw %>% select(Contract) 

# A tibble: 18,979 × 1
   Contract   
   <chr>      
 1 2004 ~ 2021
 2 2018 ~ 2022
 3 2014 ~ 2023
 4 2015 ~ 2023
 5 2017 ~ 2022
 6 2014 ~ 2023
 7 2017 ~ 2023
 8 2018 ~ 2024
 9 2018 ~ 2022
10 2014 ~ 2022
# ℹ 18,969 more rows
…
